digraph "Graphical Class Hierarchy"
{
 // LATEX_PDF_SIZE
  edge [fontname="Helvetica",fontsize="10",labelfontname="Helvetica",labelfontsize="10"];
  node [fontname="Helvetica",fontsize="10",shape=record];
  rankdir="LR";
  Node7 [label="QMainWindow",height=0.2,width=0.4,color="grey75", fillcolor="white", style="filled",tooltip=" "];
  Node7 -> Node0 [dir="back",color="midnightblue",fontsize="10",style="solid",fontname="Helvetica"];
  Node0 [label="InfoLog",height=0.2,width=0.4,color="black", fillcolor="white", style="filled",URL="$classInfoLog.html",tooltip=" "];
  Node7 -> Node9 [dir="back",color="midnightblue",fontsize="10",style="solid",fontname="Helvetica"];
  Node9 [label="KoZnaui",height=0.2,width=0.4,color="black", fillcolor="white", style="filled",URL="$classKoZnaui.html",tooltip=" "];
  Node7 -> Node10 [dir="back",color="midnightblue",fontsize="10",style="solid",fontname="Helvetica"];
  Node10 [label="MainWindow",height=0.2,width=0.4,color="black", fillcolor="white", style="filled",URL="$classMainWindow.html",tooltip=" "];
  Node7 -> Node11 [dir="back",color="midnightblue",fontsize="10",style="solid",fontname="Helvetica"];
  Node11 [label="PocetniEkran",height=0.2,width=0.4,color="black", fillcolor="white", style="filled",URL="$classPocetniEkran.html",tooltip=" "];
  Node7 -> Node12 [dir="back",color="midnightblue",fontsize="10",style="solid",fontname="Helvetica"];
  Node12 [label="ReckoUI",height=0.2,width=0.4,color="black", fillcolor="white", style="filled",URL="$classReckoUI.html",tooltip=" "];
}
